{
  "profiles": {
    "XFWNative.WotExport.Codegen": {
      "commandName": "Project",
      "commandLineArgs": "-d D:\\Projects\\Wargaming\\XFW.Native\\data\\lib_wotexport -o D:\\Projects\\Wargaming\\XFW.Native\\src\\lib_wotexport"
    }
  }
}