{
  "Functions": [
    {
      "Name": "PyBuffer_FillContiguousStrides",
      "Arguments": "int, Py_ssize_t *, Py_ssize_t *, int, char",
      "ReturnType": "void",
      "Signatures_32bit": []
    },
    {
      "Name": "PyBuffer_FillInfo",
      "Arguments": "Py_buffer *, PyObject *, void *, Py_ssize_t, int, int",
      "ReturnType": "int",
      "Signatures_32bit": [
        {
          "Signature": "55 8B EC 56 8B 75 08 85 F6 75 05 33 C0 5E 5D C3 8B 55 18 53 8B 5D 1C F6 C3 01 74 1F 83 FA 01 75"
        }
      ]
    },
    {
      "Name": "PyBuffer_FromContiguous",
      "Arguments": "Py_buffer *, void *, Py_ssize_t, char",
      "ReturnType": "int",
      "Signatures_32bit": []
    },
    {
      "Name": "PyBuffer_FromMemory",
      "Arguments": "void *, Py_ssize_t",
      "ReturnType": "PyObject *",
      "Signatures_32bit": [
        {
          "Signature": "55 8B EC 56 8B 75 0C 85 F6 79 1D 83 FE FF 74 18 68 ? ? ? ? FF 35 ? ? ? ? E8 ? ? ? ? 83 C4 08 33 C0 5E 5D C3 68"
        }
      ]
    },
    {
      "Name": "PyBuffer_FromObject",
      "Arguments": "PyObject *, Py_ssize_t, Py_ssize_t",
      "ReturnType": "PyObject *",
      "Signatures_32bit": []
    },
    {
      "Name": "PyBuffer_FromReadWriteMemory",
      "Arguments": "void *, Py_ssize_t",
      "ReturnType": "PyObject *",
      "Signatures_32bit": []
    },
    {
      "Name": "PyBuffer_FromReadWriteObject",
      "Arguments": "PyObject *, Py_ssize_t, Py_ssize_t",
      "ReturnType": "PyObject *",
      "Signatures_32bit": []
    },
    {
      "Name": "PyBuffer_GetPointer",
      "Arguments": "Py_buffer *, Py_ssize_t *",
      "ReturnType": "void *",
      "Signatures_32bit": [
        {
          "Signature": "55 8B EC 51 8B 4D 08 57 8B 79 14 8B 01 85 FF 7E"
        },
        {
          "Signature": "55 8B EC 8B 4D 08 56 8B 71 14 8B 01 85 F6 7E 35"
        }
      ]
    },
    {
      "Name": "PyBuffer_IsContiguous",
      "Arguments": "Py_buffer *, char",
      "ReturnType": "int",
      "Signatures_32bit": [
        {
          "Signature": "55 8B EC 56 8B 75 08 83 7E 24 00 75 49 8A 45 0C"
        }
      ]
    },
    {
      "Name": "PyBuffer_New",
      "Arguments": "Py_ssize_t",
      "ReturnType": "PyObject *",
      "Signatures_32bit": []
    },
    {
      "Name": "PyBuffer_Release",
      "Arguments": "Py_buffer *",
      "ReturnType": "void",
      "Signatures_32bit": [
        {
          "Signature": "55 8B EC 56 57 8B 7D 08 8B 77 04 85 F6 74 28"
        },
        {
          "Signature": "55 8B EC 56 57 8B 7D 08 8B 77 04 85 F6 74 29"
        }
      ]
    },
    {
      "Name": "PyBuffer_ToContiguous",
      "Arguments": "void *, Py_buffer *, Py_ssize_t, char",
      "ReturnType": "int",
      "Signatures_32bit": [
        {
          "Signature": "55 8B EC 53 8B 5D 10 56 8B 75 0C 8B 46 08 3B D8"
        },
        {
          "Signature": "55 8B EC 53 8B 5D 10 56 8B 75 0C FF 75 14 56 3B"
        }
      ]
    }
  ],
  "Structures": [
    {
      "Name": "PyBuffer_Type",
      "Type": "PyTypeObject",
      "Signatures_32bit": [
        {
          "Signature": "_PyBuiltin_Init+0x142",
          "ValidationPrefix": "00 68"
        }
      ]
    }
  ]
}