{
  "Functions": [
    {
      "Name": "PyFunction_GetClosure",
      "Arguments": "PyObject *",
      "ReturnType": "PyObject *",
      "Signatures_32bit": []
    },
    {
      "Name": "PyFunction_GetCode",
      "Arguments": "PyObject *",
      "ReturnType": "PyObject *",
      "Signatures_32bit": []
    },
    {
      "Name": "PyFunction_GetDefaults",
      "Arguments": "PyObject *",
      "ReturnType": "PyObject *",
      "Signatures_32bit": []
    },
    {
      "Name": "PyFunction_GetGlobals",
      "Arguments": "PyObject *",
      "ReturnType": "PyObject *",
      "Signatures_32bit": []
    },
    {
      "Name": "PyFunction_GetModule",
      "Arguments": "PyObject *",
      "ReturnType": "PyObject *",
      "Signatures_32bit": []
    },
    {
      "Name": "PyFunction_New",
      "Arguments": "PyObject *, PyObject *",
      "ReturnType": "PyObject *",
      "Signatures_32bit": [
        {
          "Signature": "55 8B EC 56 57 68 ? ? ? ? E8 ? ? ? ? 8B F0 83 C4 04 85 F6 0F 84 9F"
        }
      ]
    },
    {
      "Name": "PyFunction_SetClosure",
      "Arguments": "PyObject *, PyObject *",
      "ReturnType": "int",
      "Signatures_32bit": [
        {
          "Signature": "55 8B EC 57 8B 7D 08 81 7F 04 ? ? ? ? 74 18 68 8A 00 00 00 68"
        }
      ]
    },
    {
      "Name": "PyFunction_SetDefaults",
      "Arguments": "PyObject *, PyObject *",
      "ReturnType": "int",
      "Signatures_32bit": [
        {
          "Signature": "55 8B EC 57 8B 7D 08 81 7F 04 ? ? ? ? 74 15 6A 6B 68"
        }
      ]
    }
  ],
  "Structures": [
    {
      "Name": "PyFunction_Type",
      "Type": "PyTypeObject",
      "Signatures_32bit": [
        {
          "Signature": "PyFunction_New+0x06",
          "ValidationPrefix": "57 68"
        }
      ]
    }
  ]
}