{
  "Functions": [
    {
      "Name": "PyGen_NeedsFinalizing",
      "Arguments": "PyGenObject *",
      "ReturnType": "int",
      "Signatures_32bit": [
        {
          "Signature": "55 8B EC 8B 45 08 8B 50 08 85 D2 74 28 83 7A 24"
        }
      ]
    },
    {
      "Name": "PyGen_New",
      "Arguments": "PyFrameObject *",
      "ReturnType": "PyObject *",
      "Signatures_32bit": [
        {
          "Signature": "55 8B EC 56 68 ? ? ? ? E8 ? ? ? ? 8B 4D 08"
        }
      ]
    }
  ],
  "Structures": [
    {
      "Name": "PyGen_Type",
      "Type": "PyTypeObject",
      "Signatures_32bit": [
        {
          "Signature": "PyGen_New+0x5",
          "ValidationPrefix": "8B EC 56 68"
        }
      ]
    }
  ]
}