{
  "Functions": [
    {
      "Name": "_PyImportHooks_Init",
      "Arguments": "void",
      "ReturnType": "void",
      "Signatures_32bit": [
        {
          "Signature": "53 56 57 68 ? ? ? ? 33 DB E8"
        }
      ]
    }
  ],
  "Structures": []
}