{
  "Functions": [],
  "Structures": [
    {
      "Name": "PyMemoryView_Type",
      "Type": "PyTypeObject",
      "Signatures_32bit": [
        {
          "Signature": "_PyBuiltin_Init+0xF1",
          "ValidationPrefix": "00 68"
        }
      ]
    }
  ]
}