{
  "Functions": [
    {
      "Name": "_PyNode_SizeOf",
      "Arguments": "node *",
      "ReturnType": "Py_ssize_t",
      "Signatures_32bit": [
        {
          "Signature": "55 8B EC 8B 45 08 85 C0 74 0E 50 E8"
        }
      ]
    },
    {
      "Name": "PyNode_AddChild",
      "Arguments": "node *, int, char *, int, int *",
      "ReturnType": "int",
      "Signatures_32bit": [
        {
          "Signature": "55 8B EC 56 57 8B 7D 08 8B 57 10 81 FA FF FF FF"
        }
      ]
    },
    {
      "Name": "PyNode_Free",
      "Arguments": "node *",
      "ReturnType": "void",
      "Signatures_32bit": [
        {
          "Signature": "55 8B EC 56 8B 75 08 85 F6 74 0F 56 E8"
        }
      ]
    },
    {
      "Name": "PyNode_New",
      "Arguments": "int",
      "ReturnType": "node *",
      "Signatures_32bit": [
        {
          "Signature": "55 8B EC 6A 18 E8 ? ? ? ? 8B C8 83 C4 04 85"
        }
      ]
    }
  ],
  "Structures": []
}