{
  "Functions": [
    {
      "Name": "_PyOS_ascii_formatd",
      "Arguments": "",
      "ReturnType": "",
      "Signatures_32bit": []
    },
    {
      "Name": "_PyOS_ascii_strtod",
      "Arguments": "const char *, char **",
      "ReturnType": "double",
      "Signatures_32bit": [
        {
          "Signature": "55 8B EC 83 EC 10 53 56 57 FF ? ? ? ? ? 8B 3D"
        },
        {
          "Signature": "55 8B EC 83 EC 10 53 56 57 FF 15 ? ? ? ? 8B 1D"
        }
      ]
    },
    {
      "Name": "_PyOS_GetOpt",
      "Arguments": "",
      "ReturnType": "",
      "Signatures_32bit": []
    },
    {
      "Name": "_PyOS_ResetGetOpt",
      "Arguments": "",
      "ReturnType": "",
      "Signatures_32bit": []
    },
    {
      "Name": "_PyOS_URandom",
      "Arguments": "",
      "ReturnType": "",
      "Signatures_32bit": []
    },
    {
      "Name": "PyOS_AfterFork",
      "Arguments": "",
      "ReturnType": "",
      "Signatures_32bit": []
    },
    {
      "Name": "PyOS_ascii_atof",
      "Arguments": "",
      "ReturnType": "",
      "Signatures_32bit": []
    },
    {
      "Name": "PyOS_ascii_formatd",
      "Arguments": "",
      "ReturnType": "",
      "Signatures_32bit": []
    },
    {
      "Name": "PyOS_ascii_strtod",
      "Arguments": "",
      "ReturnType": "",
      "Signatures_32bit": []
    },
    {
      "Name": "PyOS_CheckStack",
      "Arguments": "void",
      "ReturnType": "int",
      "Signatures_32bit": [
        {
          "Signature": "55 8B EC 6A FE 68 ? ? ? ? 68 ? ? ? ? 64 A1 00 00 00 00 50 83 EC 0C A1"
        }
      ]
    },
    {
      "Name": "PyOS_double_to_string",
      "Arguments": "double, char, int, int, int *",
      "ReturnType": "char *",
      "Signatures_32bit": [
        {
          "Signature": "55 8B EC 0F BE 45 10 B9"
        }
      ]
    },
    {
      "Name": "PyOS_FiniInterrupts",
      "Arguments": "",
      "ReturnType": "",
      "Signatures_32bit": []
    },
    {
      "Name": "PyOS_getsig",
      "Arguments": "int",
      "ReturnType": "PyOS_sighandler_t",
      "Signatures_32bit": [
        {
          "Signature": "55 8B EC 56 8B 75 08 8D 46 FE 83 F8 14 77 33 0F"
        }
      ]
    },
    {
      "Name": "PyOS_InitInterrupts",
      "Arguments": "",
      "ReturnType": "",
      "Signatures_32bit": []
    },
    {
      "Name": "PyOS_InterruptOccurred",
      "Arguments": "void",
      "ReturnType": "int",
      "Signatures_32bit": [
        {
          "Signature": "83 ? ? ? ? ? 00 74 1D E8 ? ? ? ? 3B 05"
        }
      ]
    },
    {
      "Name": "PyOS_mystricmp",
      "Arguments": "",
      "ReturnType": "",
      "Signatures_32bit": []
    },
    {
      "Name": "PyOS_mystrnicmp",
      "Arguments": "",
      "ReturnType": "",
      "Signatures_32bit": []
    },
    {
      "Name": "PyOS_Readline",
      "Arguments": "FILE *, FILE *, char *",
      "ReturnType": "char *",
      "Signatures_32bit": [
        {
          "Signature": "55 8B EC 51 8B 0D ? ? ? ? 39 0D"
        }
      ]
    },
    {
      "Name": "PyOS_setsig",
      "Arguments": "int, PyOS_sighandler_t",
      "ReturnType": "PyOS_sighandler_t",
      "Signatures_32bit": [
        {
          "Signature": "55 8B EC 5D FF ? ? ? ? ? CC CC CC CC CC CC 55 8B EC 83 EC 20 56 8B 75 1C 57 85 F6"
        }
      ]
    },
    {
      "Name": "PyOS_snprintf",
      "Arguments": "char *str, size_t size, const char *format, ...",
      "ReturnType": "int",
      "Signatures_32bit": [
        {
          "Signature": "55 8B EC 56 8B 75 0C 57 8B 7D 08 81 FE FE FF FF 7F 76 07 B8 66 FD FF FF EB 12"
        },
        {
          "Signature": "55 8B EC 56 8B 75 0C 57 8B 7D 08 81 FE FE FF FF 7F 76 07 B8 66 FD FF FF EB 2A"
        }
      ]
    },
    {
      "Name": "PyOS_StdioReadline",
      "Arguments": "FILE *, FILE *, char *",
      "ReturnType": "char *",
      "Signatures_32bit": [
        {
          "Signature": "55 8B EC 53 56 57 6A 64 E8"
        }
      ]
    },
    {
      "Name": "PyOS_string_to_double",
      "Arguments": "const char *, char **",
      "ReturnType": "double",
      "Signatures_32bit": [
        {
          "Signature": "55 8B EC 83 EC 14 F2 0F 10 05 ? ? ? ? 56 57"
        }
      ]
    },
    {
      "Name": "PyOS_strtol",
      "Arguments": "char *, char **, int",
      "ReturnType": "long",
      "Signatures_32bit": [
        {
          "Signature": "55 8B EC 53 56 8B 75 08 8A 06"
        }
      ]
    },
    {
      "Name": "PyOS_strtoul",
      "Arguments": "char *, char **, int",
      "ReturnType": "unsigned long",
      "Signatures_32bit": [
        {
          "Signature": "55 8B EC 53 56 8B 75 08 57 8A 06"
        },
        {
          "Signature": "55 8B EC 53 56 8B 75 08 57 33 FF 8A 06 84 C0 74 1B"
        }
      ]
    },
    {
      "Name": "PyOS_vsnprintf",
      "Arguments": "char *str, size_t size, const char *format, va_list va",
      "ReturnType": "int",
      "Signatures_32bit": [
        {
          "Signature": "55 8B EC 56 8B 75 0C 57 8B 7D 08 81 FE FE FF FF 7F 76 07 B8 66 FD FF FF EB 11"
        },
        {
          "Signature": "55 8B EC 56 8B 75 0C 57 8B 7D 08 81 FE FE FF FF 7F 76 07 B8 66 FD FF FF EB 29"
        }
      ]
    }
  ],
  "Structures": []
}