{
  "Functions": [
    {
      "Name": "PyParser_ASTFromFile",
      "Arguments": "FILE *, const char *, int, char *, char *, PyCompilerFlags *, int *, PyArena *",
      "ReturnType": "mod_ty",
      "Signatures_32bit": [
        {
          "Signature": "55 8B EC 83 EC 20 56 8B 75 1C 57 85 F6 74"
        }
      ]
    }
  ],
  "Structures": []
}