{
  "Functions": [],
  "Structures": [
    {
      "Name": "PyRange_Type",
      "Type": "PyTypeObject",
      "Signatures_32bit": [
        {
          "Signature": "_PyBuiltin_Init+0x375",
          "ValidationPrefix": "78 69 68"
        }
      ]
    }
  ]
}