{
  "Functions": [
    {
      "Name": "PySeqIter_New",
      "Arguments": "PyObject *",
      "ReturnType": "PyObject *",
      "Signatures_32bit": [
        {
          "Signature": "55 8B EC 57 8B 7D 08 57 E8 ? ? ? ? 83 C4 04"
        }
      ]
    }
  ],
  "Structures": [
    {
      "Name": "PySeqIter_Type",
      "Type": "PyTypeObject",
      "Signatures_32bit": [
        {
          "Signature": "PySeqIter_New+0x2A",
          "ValidationPrefix": "C3 56 68"
        }
      ]
    }
  ]
}