{
  "Functions": [
    {
      "Name": "_PySlice_FromIndices",
      "Arguments": "Py_ssize_t, Py_ssize_t",
      "ReturnType": "PyObject *",
      "Signatures_32bit": [
        {
          "Signature": "55 8B EC 56 57 FF 75 08 E8 ? ? ? ? 8B F0 83 C4 04 85 F6 74 22 FF 75 0C E8"
        }
      ]
    },
    {
      "Name": "PySlice_GetIndicesEx",
      "Arguments": "PySliceObject *, Py_ssize_t, Py_ssize_t *, Py_ssize_t *, Py_ssize_t *, Py_ssize_t *",
      "ReturnType": "int",
      "Signatures_32bit": [
        {
          "Signature": "55 8B EC 53 8B 5D 08 56 57 8B 7D 18 8B 43 10 3D"
        }
      ]
    },
    {
      "Name": "PySlice_New",
      "Arguments": "PyObject *, PyObject *, PyObject *",
      "ReturnType": "PyObject *",
      "Signatures_32bit": [
        {
          "Signature": "55 8B EC 57 68 ? ? ? ? E8 ? ? ? ? 8B F8 83 C4 04 85 FF 75 03 5F 5D C3 8B 45 10 85 C0 56 BE"
        }
      ]
    }
  ],
  "Structures": [
    {
      "Name": "PySlice_Type",
      "Type": "PyTypeObject",
      "Signatures_32bit": [
        {
          "Signature": "PySlice_New+0x05",
          "ValidationPrefix": "8B EC 57 68"
        }
      ]
    }
  ]
}