{
  "Functions": [],
  "Structures": [
    {
      "Name": "PySuper_Type",
      "Type": "PyTypeObject",
      "Signatures_32bit": [
        {
          "Signature": "_PyBuiltin_Init+0x328",
          "ValidationPrefix": "00 68"
        }
      ]
    }
  ]
}