{
  "Functions": [
    {
      "Name": "PyTraceBack_Here",
      "Arguments": "struct _frame *",
      "ReturnType": "int",
      "Signatures_32bit": [
        {
          "Signature": "55 8B EC 56 57 8B 3D ? ? ? ? FF 75 08"
        },
        {
          "Signature": "55 8B EC 51 A1 ? ? ? ? 53 56 57 8B 70 30 89"
        }
      ]
    },
    {
      "Name": "PyTraceBack_Print",
      "Arguments": "PyObject *, PyObject *",
      "ReturnType": "int",
      "Signatures_32bit": [
        {
          "Signature": "55 8B EC 56 8B 75 08 57 BF ? ? ? ? 85 F6 75 06 5F 33 C0 5E 5D C3 81 7E"
        },
        {
          "Signature": "55 8B EC 81 EC E4 07 00 00 A1 ? ? ? ? 33 C5"
        }
      ]
    }
  ],
  "Structures": [
    {
      "Name": "PyTraceBack_Type",
      "Type": "PyTypeObject",
      "Signatures_32bit": [
        {
          "Signature": "PyTraceBack_Print+0x37",
          "ValidationPrefix": "81 7F 04"
        }
      ]
    }
  ]
}